{
	"@type": "FacilityImportExportView",
	"name": "Abbvie ALC",
	"enableStorage": true,
	"storageRoles": ["Administrator", "PMED Tissue Bank Admin", "PMED Tissue Bank General"],
	"address": {
		"country": "United States"
	}
}