{
	"@type": "QiagramDatasourceImportExportView",
	"name": "STAGING - AbbVie PMED Animal",
	"icon": "upload.png",
	"isUserIcon": false,
	"autoUpdateInCatalog": false,
	"paletteGroup": "Staging",
	"martName": "QIAGRAM_IMPORT__68510916_3A54_44E1_8CC5_37B058234C63",
	"fields": [{
		"name": "Abbvie ID",
		"externalId": "Abbvie ID",
		"type": {
			"name": "String"
		},
		"size": 500,
		"columnName": "COL_ABBVIEID_1",
		"modules": "10",
		"isPhi": false,
		"isCataloged": false,
		"ordinalPosition": 0
	}, {
		"name": "Sample Type",
		"externalId": "Sample Type",
		"type": {
			"name": "String"
		},
		"size": 500,
		"columnName": "COL_SAMPLETYPE_2",
		"modules": "10",
		"isPhi": false,
		"isCataloged": false,
		"ordinalPosition": 1
	}, {
		"name": "Sample Name",
		"externalId": "Sample Name",
		"type": {
			"name": "String"
		},
		"size": 500,
		"columnName": "COL_SAMPLENAME_3",
		"modules": "10",
		"isPhi": false,
		"isCataloged": false,
		"ordinalPosition": 2
	}, {
		"name": "Study ID",
		"externalId": "Study ID",
		"type": {
			"name": "String"
		},
		"size": 500,
		"columnName": "COL_STUDYID_4",
		"modules": "10",
		"isPhi": false,
		"isCataloged": false,
		"ordinalPosition": 3
	}, {
		"name": "Animal ID",
		"externalId": "Animal ID",
		"type": {
			"name": "String"
		},
		"size": 500,
		"columnName": "COL_ANIMALID_5",
		"modules": "10",
		"isPhi": false,
		"isCataloged": false,
		"ordinalPosition": 4
	}, {
		"name": "Collection Date",
		"externalId": "Collection Date",
		"type": {
			"name": "String"
		},
		"size": 500,
		"columnName": "COL_COLLECTIONDATE_6",
		"modules": "10",
		"isPhi": false,
		"isCataloged": false,
		"ordinalPosition": 5
	}, {
		"name": "Tissue Type",
		"externalId": "Tissue Type",
		"type": {
			"name": "String"
		},
		"size": 500,
		"columnName": "COL_TISSUETYPE_7",
		"modules": "10",
		"isPhi": false,
		"isCataloged": false,
		"ordinalPosition": 6
	}, {
		"name": "Treatment",
		"externalId": "Treatment",
		"type": {
			"name": "String"
		},
		"size": 500,
		"columnName": "COL_TREATMENT_8",
		"modules": "10",
		"isPhi": false,
		"isCataloged": false,
		"ordinalPosition": 7
	}, {
		"name": "Fixation",
		"externalId": "Fixation",
		"type": {
			"name": "String"
		},
		"size": 500,
		"columnName": "COL_FIXATION_9",
		"modules": "10",
		"isPhi": false,
		"isCataloged": false,
		"ordinalPosition": 8
	}, {
		"name": "Species",
		"externalId": "Species",
		"type": {
			"name": "String"
		},
		"size": 500,
		"columnName": "COL_SPECIES_10",
		"modules": "10",
		"isPhi": false,
		"isCataloged": false,
		"ordinalPosition": 9
	}, {
		"name": "Strain",
		"externalId": "Strain",
		"type": {
			"name": "String"
		},
		"size": 500,
		"columnName": "COL_STRAIN_11",
		"modules": "10",
		"isPhi": false,
		"isCataloged": false,
		"ordinalPosition": 10
	}, {
		"name": "Ref for Studies",
		"externalId": "Ref for Studies",
		"type": {
			"name": "String"
		},
		"size": 500,
		"columnName": "COL_REFFORSTUDIES_12",
		"modules": "10",
		"isPhi": false,
		"isCataloged": false,
		"ordinalPosition": 11
	}, {
		"name": "Comment",
		"externalId": "Comment",
		"type": {
			"name": "String"
		},
		"size": 500,
		"columnName": "COL_COMMENT_13",
		"modules": "10",
		"isPhi": false,
		"isCataloged": false,
		"ordinalPosition": 12
	}, {
		"name": "TPRS",
		"externalId": "TPRS",
		"type": {
			"name": "String"
		},
		"size": 500,
		"columnName": "COL_TPRS_14",
		"modules": "10",
		"isPhi": false,
		"isCataloged": false,
		"ordinalPosition": 13
	}, {
		"name": "Sample Status",
		"externalId": "Sample Status",
		"type": {
			"name": "String"
		},
		"size": 500,
		"columnName": "COL_SAMPLESTATUS_15",
		"modules": "10",
		"isPhi": false,
		"isCataloged": false,
		"ordinalPosition": 14
	}, {
		"name": "Sample Location",
		"externalId": "Sample Location",
		"type": {
			"name": "String"
		},
		"size": 500,
		"columnName": "COL_SAMPLELOCATION_16",
		"modules": "10",
		"isPhi": false,
		"isCataloged": false,
		"ordinalPosition": 15
	}, {
		"name": "Freezer",
		"externalId": "Freezer",
		"type": {
			"name": "String"
		},
		"size": 500,
		"columnName": "COL_FREEZER_17",
		"modules": "10",
		"isPhi": false,
		"isCataloged": false,
		"ordinalPosition": 16
	}, {
		"name": "Shelf",
		"externalId": "Shelf",
		"type": {
			"name": "String"
		},
		"size": 500,
		"columnName": "COL_SHELF_18",
		"modules": "10",
		"isPhi": false,
		"isCataloged": false,
		"ordinalPosition": 17
	}, {
		"name": "Rack",
		"externalId": "Rack",
		"type": {
			"name": "String"
		},
		"size": 500,
		"columnName": "COL_RACK_19",
		"modules": "10",
		"isPhi": false,
		"isCataloged": false,
		"ordinalPosition": 18
	}, {
		"name": "Box",
		"externalId": "Box",
		"type": {
			"name": "String"
		},
		"size": 500,
		"columnName": "COL_BOX_20",
		"modules": "10",
		"isPhi": false,
		"isCataloged": false,
		"ordinalPosition": 19
	}, {
		"name": "Position",
		"externalId": "Position",
		"type": {
			"name": "String"
		},
		"size": 500,
		"columnName": "COL_POSITION_21",
		"modules": "10",
		"isPhi": false,
		"isCataloged": false,
		"ordinalPosition": 20
	}, {
		"name": "__row",
		"externalId": "__row",
		"type": {
			"name": "String"
		},
		"size": 850,
		"columnName": "__SE_ROW",
		"modules": "10",
		"isPhi": false,
		"isCataloged": false,
		"ordinalPosition": 21
	}, {
		"name": "Batch ID",
		"externalId": "Batch ID",
		"type": {
			"name": "String"
		},
		"size": 36,
		"columnName": "BATCH_ID",
		"modules": "10",
		"isPhi": false,
		"isCataloged": false,
		"ordinalPosition": 22
	}],
	"isSnapshot": false,
	"isSorted": true,
	"isStaging": true,
	"wasUploaded": true,
	"type": "STAGING",
	"accessGroupName": "Public"
}